project_4/fir_waveform_tb.console.log
launch_simulation
Command: launch_simulation 
INFO: [Vivado 12-12493] Simulation top is 'fir_waveform_tb'
WARNING: [Vivado 12-13277] Compiled library path does not exist: ''
INFO: [Vivado 12-5682] Launching behavioral simulation in '/home/tnoble/cecs460_project4/project_4/project_4.sim/sim_1/behav/xsim'
INFO: [SIM-utils-51] Simulation object is 'sim_1'
INFO: [SIM-utils-72] Using boost library from '/tools/Xilinx/Vivado/2022.1/tps/boost_1_72_0'
INFO: [SIM-utils-54] Inspecting design source files for 'fir_waveform_tb' in fileset 'sim_1'...
INFO: [USF-XSim-97] Finding global include files...
INFO: [USF-XSim-98] Fetching design files from 'sim_1'...
INFO: [USF-XSim-2] XSim::Compile design
INFO: [USF-XSim-61] Executing 'COMPILE and ANALYZE' step in '/home/tnoble/cecs460_project4/project_4/project_4.sim/sim_1/behav/xsim'
xvlog --incr --relax -prj fir_waveform_tb_vlog.prj
Waiting for jobs to finish...
No pending jobs, compilation finished.
INFO: [USF-XSim-69] 'compile' step finished in '1' seconds
INFO: [USF-XSim-3] XSim::Elaborate design
INFO: [USF-XSim-61] Executing 'ELABORATE' step in '/home/tnoble/cecs460_project4/project_4/project_4.sim/sim_1/behav/xsim'
xelab --incr --debug typical --relax --mt 8 -L xil_defaultlib -L unisims_ver -L unimacro_ver -L secureip --snapshot fir_waveform_tb_behav xil_defaultlib.fir_waveform_tb xil_defaultlib.glbl -log elaborate.log
Vivado Simulator v2022.1
Copyright 1986-1999, 2001-2022 Xilinx, Inc. All Rights Reserved.
Running: /tools/Xilinx/Vivado/2022.1/bin/unwrapped/lnx64.o/xelab --incr --debug typical --relax --mt 8 -L xil_defaultlib -L unisims_ver -L unimacro_ver -L secureip --snapshot fir_waveform_tb_behav xil_defaultlib.fir_waveform_tb xil_defaultlib.glbl -log elaborate.log 
Using 8 slave threads.
Starting static elaboration
Pass Through NonSizing Optimizer
Completed static elaboration
INFO: [XSIM 43-4323] No Change in HDL. Linking previously generated obj files to create kernel
INFO: [USF-XSim-69] 'elaborate' step finished in '2' seconds
INFO: [USF-XSim-4] XSim::Simulate design
INFO: [USF-XSim-61] Executing 'SIMULATE' step in '/home/tnoble/cecs460_project4/project_4/project_4.sim/sim_1/behav/xsim'
INFO: [USF-XSim-98] *** Running xsim
   with args "fir_waveform_tb_behav -key {Behavioral:sim_1:Functional:fir_waveform_tb} -tclbatch {fir_waveform_tb.tcl} -log {simulate.log}"
INFO: [USF-XSim-8] Loading simulator feature
Time resolution is 1 ps
source fir_waveform_tb.tcl
# set curr_wave [current_wave_config]
# if { [string length $curr_wave] == 0 } {
#   if { [llength [get_objects]] > 0} {
#     add_wave /
#     set_property needs_save false [current_wave_config]
#   } else {
#      send_msg_id Add_Wave-1 WARNING "No top level signals found. Simulator will start without a wave window. If you want to open a wave window go to 'File->New Waveform Configuration' or type 'create_wave_config' in the TCL console."
#   }
# }
# run 100000ns
Starting waveform testbench at time                    0
Time=                   0, Full Counter=         0, Cycle Count=0, Done=x, NP State= 0, P State=0
Time=                5000, Full Counter=         0, Cycle Count=0, Done=0, NP State= 0, P State=0
Reset complete at time                40000
Initializing memory at time               140000
DUT Memory initialized with test pattern for waveform analysis
Memory[0] =    0 (should be 64)
Memory[10] =    0 (should be 32)
Memory[20] =    0 (should be 0)
Running non-pipelined filter for waveform analysis...
Starting non-pipelined filter run at time              2165000
Time=             2195000, Full Counter=         1, Cycle Count=1, Done=0, NP State= 1, P State=0
Non-pipelined start pulse completed at time              2205000
Time=             2205000, Full Counter=         2, Cycle Count=2, Done=0, NP State= 2, P State=0
Time=             2215000, Full Counter=         3, Cycle Count=3, Done=0, NP State= 3, P State=0
Time=             2225000, Full Counter=         4, Cycle Count=4, Done=0, NP State= 4, P State=0
Time=             2235000, Full Counter=         5, Cycle Count=5, Done=0, NP State= 5, P State=0
Time=             2245000, Full Counter=         6, Cycle Count=6, Done=0, NP State= 6, P State=0
Time=             2255000, Full Counter=         7, Cycle Count=7, Done=0, NP State= 7, P State=0
Time=             2265000, Full Counter=         8, Cycle Count=0, Done=0, NP State= 8, P State=0
Time=             2275000, Full Counter=         9, Cycle Count=1, Done=0, NP State= 9, P State=0
Time=             2285000, Full Counter=        10, Cycle Count=2, Done=0, NP State=10, P State=0
Time=             2295000, Full Counter=        11, Cycle Count=3, Done=0, NP State=11, P State=0
Time=             2305000, Full Counter=        12, Cycle Count=4, Done=0, NP State=12, P State=0
Time=             2315000, Full Counter=        13, Cycle Count=5, Done=0, NP State= 1, P State=0
Time=             2325000, Full Counter=        14, Cycle Count=6, Done=0, NP State= 2, P State=0
Time=             2335000, Full Counter=        15, Cycle Count=7, Done=0, NP State= 3, P State=0
Time=             2345000, Full Counter=        16, Cycle Count=0, Done=0, NP State= 4, P State=0
Time=             2355000, Full Counter=        17, Cycle Count=1, Done=0, NP State= 5, P State=0
Time=             2365000, Full Counter=        18, Cycle Count=2, Done=0, NP State= 6, P State=0
Time=             2375000, Full Counter=        19, Cycle Count=3, Done=0, NP State= 7, P State=0
Time=             2385000, Full Counter=        20, Cycle Count=4, Done=0, NP State= 8, P State=0
Time=             2395000, Full Counter=        21, Cycle Count=5, Done=0, NP State= 9, P State=0
Time=             2405000, Full Counter=        22, Cycle Count=6, Done=0, NP State=10, P State=0
Time=             2415000, Full Counter=        23, Cycle Count=7, Done=0, NP State=11, P State=0
Time=             2425000, Full Counter=        24, Cycle Count=0, Done=0, NP State=12, P State=0
Time=             2435000, Full Counter=        25, Cycle Count=1, Done=0, NP State= 1, P State=0
Time=             2445000, Full Counter=        26, Cycle Count=2, Done=0, NP State= 2, P State=0
Time=             2455000, Full Counter=        27, Cycle Count=3, Done=0, NP State= 3, P State=0
Time=             2465000, Full Counter=        28, Cycle Count=4, Done=0, NP State= 4, P State=0
Time=             2475000, Full Counter=        29, Cycle Count=5, Done=0, NP State= 5, P State=0
Time=             2485000, Full Counter=        30, Cycle Count=6, Done=0, NP State= 6, P State=0
Time=             2495000, Full Counter=        31, Cycle Count=7, Done=0, NP State= 7, P State=0
Time=             2505000, Full Counter=        32, Cycle Count=0, Done=0, NP State= 8, P State=0
Time=             2515000, Full Counter=        33, Cycle Count=1, Done=0, NP State= 9, P State=0
Time=             2525000, Full Counter=        34, Cycle Count=2, Done=0, NP State=10, P State=0
Time=             2535000, Full Counter=        35, Cycle Count=3, Done=0, NP State=11, P State=0
Time=             2545000, Full Counter=        36, Cycle Count=4, Done=0, NP State=12, P State=0
Time=             2555000, Full Counter=        37, Cycle Count=5, Done=0, NP State= 1, P State=0
Time=             2565000, Full Counter=        38, Cycle Count=6, Done=0, NP State= 2, P State=0
Time=             2575000, Full Counter=        39, Cycle Count=7, Done=0, NP State= 3, P State=0
Time=             2585000, Full Counter=        40, Cycle Count=0, Done=0, NP State= 4, P State=0
Time=             2595000, Full Counter=        41, Cycle Count=1, Done=0, NP State= 5, P State=0
Time=             2605000, Full Counter=        42, Cycle Count=2, Done=0, NP State= 6, P State=0
Time=             2615000, Full Counter=        43, Cycle Count=3, Done=0, NP State= 7, P State=0
Time=             2625000, Full Counter=        44, Cycle Count=4, Done=0, NP State= 8, P State=0
Time=             2635000, Full Counter=        45, Cycle Count=5, Done=0, NP State= 9, P State=0
Time=             2645000, Full Counter=        46, Cycle Count=6, Done=0, NP State=10, P State=0
Time=             2655000, Full Counter=        47, Cycle Count=7, Done=0, NP State=11, P State=0
Time=             2665000, Full Counter=        48, Cycle Count=0, Done=0, NP State=12, P State=0
Time=             2675000, Full Counter=        49, Cycle Count=1, Done=0, NP State= 1, P State=0
Time=             2685000, Full Counter=        50, Cycle Count=2, Done=0, NP State= 2, P State=0
Time=             2695000, Full Counter=        51, Cycle Count=3, Done=0, NP State= 3, P State=0
Time=             2705000, Full Counter=        52, Cycle Count=4, Done=0, NP State= 4, P State=0
Time=             2715000, Full Counter=        53, Cycle Count=5, Done=0, NP State= 5, P State=0
Time=             2725000, Full Counter=        54, Cycle Count=6, Done=0, NP State= 6, P State=0
Time=             2735000, Full Counter=        55, Cycle Count=7, Done=0, NP State= 7, P State=0
Time=             2745000, Full Counter=        56, Cycle Count=0, Done=0, NP State= 8, P State=0
Time=             2755000, Full Counter=        57, Cycle Count=1, Done=0, NP State= 9, P State=0
Time=             2765000, Full Counter=        58, Cycle Count=2, Done=0, NP State=10, P State=0
Time=             2775000, Full Counter=        59, Cycle Count=3, Done=0, NP State=11, P State=0
Time=             2785000, Full Counter=        60, Cycle Count=4, Done=0, NP State=12, P State=0
Time=             2795000, Full Counter=        61, Cycle Count=5, Done=0, NP State= 1, P State=0
Time=             2805000, Full Counter=        62, Cycle Count=6, Done=0, NP State= 2, P State=0
Time=             2815000, Full Counter=        63, Cycle Count=7, Done=0, NP State= 3, P State=0
Time=             2825000, Full Counter=        64, Cycle Count=0, Done=0, NP State= 4, P State=0
Time=             2835000, Full Counter=        65, Cycle Count=1, Done=0, NP State= 5, P State=0
Time=             2845000, Full Counter=        66, Cycle Count=2, Done=0, NP State= 6, P State=0
Time=             2855000, Full Counter=        67, Cycle Count=3, Done=0, NP State= 7, P State=0
Time=             2865000, Full Counter=        68, Cycle Count=4, Done=0, NP State= 8, P State=0
Time=             2875000, Full Counter=        69, Cycle Count=5, Done=0, NP State= 9, P State=0
Time=             2885000, Full Counter=        70, Cycle Count=6, Done=0, NP State=10, P State=0
Time=             2895000, Full Counter=        71, Cycle Count=7, Done=0, NP State=11, P State=0
Time=             2905000, Full Counter=        72, Cycle Count=0, Done=0, NP State=12, P State=0
Time=             2915000, Full Counter=        73, Cycle Count=1, Done=0, NP State= 1, P State=0
Time=             2925000, Full Counter=        74, Cycle Count=2, Done=0, NP State= 2, P State=0
Time=             2935000, Full Counter=        75, Cycle Count=3, Done=0, NP State= 3, P State=0
Time=             2945000, Full Counter=        76, Cycle Count=4, Done=0, NP State= 4, P State=0
Time=             2955000, Full Counter=        77, Cycle Count=5, Done=0, NP State= 5, P State=0
Time=             2965000, Full Counter=        78, Cycle Count=6, Done=0, NP State= 6, P State=0
Time=             2975000, Full Counter=        79, Cycle Count=7, Done=0, NP State= 7, P State=0
Time=             2985000, Full Counter=        80, Cycle Count=0, Done=0, NP State= 8, P State=0
Time=             2995000, Full Counter=        81, Cycle Count=1, Done=0, NP State= 9, P State=0
Time=             3005000, Full Counter=        82, Cycle Count=2, Done=0, NP State=10, P State=0
Time=             3015000, Full Counter=        83, Cycle Count=3, Done=0, NP State=11, P State=0
Time=             3025000, Full Counter=        84, Cycle Count=4, Done=0, NP State=12, P State=0
Time=             3035000, Full Counter=        85, Cycle Count=5, Done=0, NP State= 1, P State=0
Time=             3045000, Full Counter=        86, Cycle Count=6, Done=0, NP State= 2, P State=0
Time=             3055000, Full Counter=        87, Cycle Count=7, Done=0, NP State= 3, P State=0
Time=             3065000, Full Counter=        88, Cycle Count=0, Done=0, NP State= 4, P State=0
Time=             3075000, Full Counter=        89, Cycle Count=1, Done=0, NP State= 5, P State=0
Time=             3085000, Full Counter=        90, Cycle Count=2, Done=0, NP State= 6, P State=0
Time=             3095000, Full Counter=        91, Cycle Count=3, Done=0, NP State= 7, P State=0
Time=             3105000, Full Counter=        92, Cycle Count=4, Done=0, NP State= 8, P State=0
Time=             3115000, Full Counter=        93, Cycle Count=5, Done=0, NP State= 9, P State=0
Time=             3125000, Full Counter=        94, Cycle Count=6, Done=0, NP State=10, P State=0
Time=             3135000, Full Counter=        95, Cycle Count=7, Done=0, NP State=11, P State=0
Time=             3145000, Full Counter=        96, Cycle Count=0, Done=0, NP State=12, P State=0
Time=             3155000, Full Counter=        97, Cycle Count=1, Done=0, NP State= 1, P State=0
Time=             3165000, Full Counter=        98, Cycle Count=2, Done=0, NP State= 2, P State=0
Time=             3175000, Full Counter=        99, Cycle Count=3, Done=0, NP State= 3, P State=0
Time=             3185000, Full Counter=       100, Cycle Count=4, Done=0, NP State= 4, P State=0
Time=             3195000, Full Counter=       101, Cycle Count=5, Done=0, NP State= 5, P State=0
Time=             3205000, Full Counter=       102, Cycle Count=6, Done=0, NP State= 6, P State=0
Time=             3215000, Full Counter=       103, Cycle Count=7, Done=0, NP State= 7, P State=0
Time=             3225000, Full Counter=       104, Cycle Count=0, Done=0, NP State= 8, P State=0
Time=             3235000, Full Counter=       105, Cycle Count=1, Done=0, NP State= 9, P State=0
Time=             3245000, Full Counter=       106, Cycle Count=2, Done=0, NP State=10, P State=0
Time=             3255000, Full Counter=       107, Cycle Count=3, Done=0, NP State=11, P State=0
Time=             3265000, Full Counter=       108, Cycle Count=4, Done=0, NP State=12, P State=0
Time=             3275000, Full Counter=       109, Cycle Count=5, Done=0, NP State= 1, P State=0
Time=             3285000, Full Counter=       110, Cycle Count=6, Done=0, NP State= 2, P State=0
Time=             3295000, Full Counter=       111, Cycle Count=7, Done=0, NP State= 3, P State=0
Time=             3305000, Full Counter=       112, Cycle Count=0, Done=0, NP State= 4, P State=0
Time=             3315000, Full Counter=       113, Cycle Count=1, Done=0, NP State= 5, P State=0
Time=             3325000, Full Counter=       114, Cycle Count=2, Done=0, NP State= 6, P State=0
Time=             3335000, Full Counter=       115, Cycle Count=3, Done=0, NP State= 7, P State=0
Time=             3345000, Full Counter=       116, Cycle Count=4, Done=0, NP State= 8, P State=0
Time=             3355000, Full Counter=       117, Cycle Count=5, Done=0, NP State= 9, P State=0
Time=             3365000, Full Counter=       118, Cycle Count=6, Done=0, NP State=10, P State=0
Time=             3375000, Full Counter=       119, Cycle Count=7, Done=0, NP State=11, P State=0
Time=             3385000, Full Counter=       120, Cycle Count=0, Done=0, NP State=12, P State=0
Time=             3395000, Full Counter=       121, Cycle Count=1, Done=0, NP State= 1, P State=0
Time=             3405000, Full Counter=       122, Cycle Count=2, Done=0, NP State= 2, P State=0
Time=             3415000, Full Counter=       123, Cycle Count=3, Done=0, NP State= 3, P State=0
Time=             3425000, Full Counter=       124, Cycle Count=4, Done=0, NP State= 4, P State=0
Time=             3435000, Full Counter=       125, Cycle Count=5, Done=0, NP State= 5, P State=0
Time=             3445000, Full Counter=       126, Cycle Count=6, Done=0, NP State= 6, P State=0
Time=             3455000, Full Counter=       127, Cycle Count=7, Done=0, NP State= 7, P State=0
Time=             3465000, Full Counter=       128, Cycle Count=0, Done=0, NP State= 8, P State=0
Time=             3475000, Full Counter=       129, Cycle Count=1, Done=0, NP State= 9, P State=0
Time=             3485000, Full Counter=       130, Cycle Count=2, Done=0, NP State=10, P State=0
Time=             3495000, Full Counter=       131, Cycle Count=3, Done=0, NP State=11, P State=0
Time=             3505000, Full Counter=       132, Cycle Count=4, Done=0, NP State=12, P State=0
Time=             3515000, Full Counter=       133, Cycle Count=5, Done=0, NP State= 1, P State=0
Time=             3525000, Full Counter=       134, Cycle Count=6, Done=0, NP State= 2, P State=0
Time=             3535000, Full Counter=       135, Cycle Count=7, Done=0, NP State= 3, P State=0
Time=             3545000, Full Counter=       136, Cycle Count=0, Done=0, NP State= 4, P State=0
Time=             3555000, Full Counter=       137, Cycle Count=1, Done=0, NP State= 5, P State=0
Time=             3565000, Full Counter=       138, Cycle Count=2, Done=0, NP State= 6, P State=0
Time=             3575000, Full Counter=       139, Cycle Count=3, Done=0, NP State= 7, P State=0
Time=             3585000, Full Counter=       140, Cycle Count=4, Done=0, NP State= 8, P State=0
Time=             3595000, Full Counter=       141, Cycle Count=5, Done=0, NP State= 9, P State=0
Time=             3605000, Full Counter=       142, Cycle Count=6, Done=0, NP State=10, P State=0
Time=             3615000, Full Counter=       143, Cycle Count=7, Done=0, NP State=11, P State=0
Time=             3625000, Full Counter=       144, Cycle Count=0, Done=0, NP State=12, P State=0
Time=             3635000, Full Counter=       145, Cycle Count=1, Done=0, NP State= 1, P State=0
Time=             3645000, Full Counter=       146, Cycle Count=2, Done=0, NP State= 2, P State=0
Time=             3655000, Full Counter=       147, Cycle Count=3, Done=0, NP State= 3, P State=0
Time=             3665000, Full Counter=       148, Cycle Count=4, Done=0, NP State= 4, P State=0
Time=             3675000, Full Counter=       149, Cycle Count=5, Done=0, NP State= 5, P State=0
Time=             3685000, Full Counter=       150, Cycle Count=6, Done=0, NP State= 6, P State=0
Time=             3695000, Full Counter=       151, Cycle Count=7, Done=0, NP State= 7, P State=0
Time=             3705000, Full Counter=       152, Cycle Count=0, Done=0, NP State= 8, P State=0
Time=             3715000, Full Counter=       153, Cycle Count=1, Done=0, NP State= 9, P State=0
Time=             3725000, Full Counter=       154, Cycle Count=2, Done=0, NP State=10, P State=0
Time=             3735000, Full Counter=       155, Cycle Count=3, Done=0, NP State=11, P State=0
Time=             3745000, Full Counter=       156, Cycle Count=4, Done=0, NP State=12, P State=0
Time=             3755000, Full Counter=       157, Cycle Count=5, Done=0, NP State= 1, P State=0
Time=             3765000, Full Counter=       158, Cycle Count=6, Done=0, NP State= 2, P State=0
Time=             3775000, Full Counter=       159, Cycle Count=7, Done=0, NP State= 3, P State=0
Time=             3785000, Full Counter=       160, Cycle Count=0, Done=0, NP State= 4, P State=0
Time=             3795000, Full Counter=       161, Cycle Count=1, Done=0, NP State= 5, P State=0
Time=             3805000, Full Counter=       162, Cycle Count=2, Done=0, NP State= 6, P State=0
Time=             3815000, Full Counter=       163, Cycle Count=3, Done=0, NP State= 7, P State=0
Time=             3825000, Full Counter=       164, Cycle Count=4, Done=0, NP State= 8, P State=0
Time=             3835000, Full Counter=       165, Cycle Count=5, Done=0, NP State= 9, P State=0
Time=             3845000, Full Counter=       166, Cycle Count=6, Done=0, NP State=10, P State=0
Time=             3855000, Full Counter=       167, Cycle Count=7, Done=0, NP State=11, P State=0
Time=             3865000, Full Counter=       168, Cycle Count=0, Done=0, NP State=12, P State=0
Time=             3875000, Full Counter=       169, Cycle Count=1, Done=0, NP State= 1, P State=0
Time=             3885000, Full Counter=       170, Cycle Count=2, Done=0, NP State= 2, P State=0
Time=             3895000, Full Counter=       171, Cycle Count=3, Done=0, NP State= 3, P State=0
Time=             3905000, Full Counter=       172, Cycle Count=4, Done=0, NP State= 4, P State=0
Time=             3915000, Full Counter=       173, Cycle Count=5, Done=0, NP State= 5, P State=0
Time=             3925000, Full Counter=       174, Cycle Count=6, Done=0, NP State= 6, P State=0
Time=             3935000, Full Counter=       175, Cycle Count=7, Done=0, NP State= 7, P State=0
Time=             3945000, Full Counter=       176, Cycle Count=0, Done=0, NP State= 8, P State=0
Time=             3955000, Full Counter=       177, Cycle Count=1, Done=0, NP State= 9, P State=0
Time=             3965000, Full Counter=       178, Cycle Count=2, Done=0, NP State=10, P State=0
Time=             3975000, Full Counter=       179, Cycle Count=3, Done=0, NP State=11, P State=0
Time=             3985000, Full Counter=       180, Cycle Count=4, Done=0, NP State=12, P State=0
Time=             3995000, Full Counter=       181, Cycle Count=5, Done=0, NP State= 1, P State=0
Time=             4005000, Full Counter=       182, Cycle Count=6, Done=0, NP State= 2, P State=0
Time=             4015000, Full Counter=       183, Cycle Count=7, Done=0, NP State= 3, P State=0
Time=             4025000, Full Counter=       184, Cycle Count=0, Done=0, NP State= 4, P State=0
Time=             4035000, Full Counter=       185, Cycle Count=1, Done=0, NP State= 5, P State=0
Time=             4045000, Full Counter=       186, Cycle Count=2, Done=0, NP State= 6, P State=0
Time=             4055000, Full Counter=       187, Cycle Count=3, Done=0, NP State= 7, P State=0
Time=             4065000, Full Counter=       188, Cycle Count=4, Done=0, NP State= 8, P State=0
Time=             4075000, Full Counter=       189, Cycle Count=5, Done=0, NP State= 9, P State=0
Time=             4085000, Full Counter=       190, Cycle Count=6, Done=0, NP State=10, P State=0
Time=             4095000, Full Counter=       191, Cycle Count=7, Done=0, NP State=11, P State=0
Time=             4105000, Full Counter=       192, Cycle Count=0, Done=0, NP State=12, P State=0
Time=             4115000, Full Counter=       193, Cycle Count=1, Done=0, NP State= 1, P State=0
Time=             4125000, Full Counter=       194, Cycle Count=2, Done=0, NP State= 2, P State=0
Time=             4135000, Full Counter=       195, Cycle Count=3, Done=0, NP State= 3, P State=0
Time=             4145000, Full Counter=       196, Cycle Count=4, Done=0, NP State= 4, P State=0
Time=             4155000, Full Counter=       197, Cycle Count=5, Done=0, NP State= 5, P State=0
Time=             4165000, Full Counter=       198, Cycle Count=6, Done=0, NP State= 6, P State=0
Time=             4175000, Full Counter=       199, Cycle Count=7, Done=0, NP State= 7, P State=0
Time=             4185000, Full Counter=       200, Cycle Count=0, Done=0, NP State= 8, P State=0
Time=             4195000, Full Counter=       201, Cycle Count=1, Done=0, NP State= 9, P State=0
Time=             4205000, Full Counter=       202, Cycle Count=2, Done=0, NP State=10, P State=0
Time=             4215000, Full Counter=       203, Cycle Count=3, Done=0, NP State=11, P State=0
Time=             4225000, Full Counter=       204, Cycle Count=4, Done=0, NP State=12, P State=0
Time=             4235000, Full Counter=       205, Cycle Count=5, Done=0, NP State= 1, P State=0
Time=             4245000, Full Counter=       206, Cycle Count=6, Done=0, NP State= 2, P State=0
Time=             4255000, Full Counter=       207, Cycle Count=7, Done=0, NP State= 3, P State=0
Time=             4265000, Full Counter=       208, Cycle Count=0, Done=0, NP State= 4, P State=0
Time=             4275000, Full Counter=       209, Cycle Count=1, Done=0, NP State= 5, P State=0
Time=             4285000, Full Counter=       210, Cycle Count=2, Done=0, NP State= 6, P State=0
Time=             4295000, Full Counter=       211, Cycle Count=3, Done=0, NP State= 7, P State=0
Time=             4305000, Full Counter=       212, Cycle Count=4, Done=0, NP State= 8, P State=0
Time=             4315000, Full Counter=       213, Cycle Count=5, Done=0, NP State= 9, P State=0
Time=             4325000, Full Counter=       214, Cycle Count=6, Done=0, NP State=10, P State=0
Time=             4335000, Full Counter=       215, Cycle Count=7, Done=0, NP State=11, P State=0
Time=             4345000, Full Counter=       216, Cycle Count=0, Done=0, NP State=12, P State=0
Time=             4355000, Full Counter=       217, Cycle Count=1, Done=0, NP State= 1, P State=0
Time=             4365000, Full Counter=       218, Cycle Count=2, Done=0, NP State= 2, P State=0
Time=             4375000, Full Counter=       219, Cycle Count=3, Done=0, NP State= 3, P State=0
Time=             4385000, Full Counter=       220, Cycle Count=4, Done=0, NP State= 4, P State=0
Time=             4395000, Full Counter=       221, Cycle Count=5, Done=0, NP State= 5, P State=0
Time=             4405000, Full Counter=       222, Cycle Count=6, Done=0, NP State= 6, P State=0
Time=             4415000, Full Counter=       223, Cycle Count=7, Done=0, NP State= 7, P State=0
Time=             4425000, Full Counter=       224, Cycle Count=0, Done=0, NP State= 8, P State=0
Time=             4435000, Full Counter=       225, Cycle Count=1, Done=0, NP State= 9, P State=0
Time=             4445000, Full Counter=       226, Cycle Count=2, Done=0, NP State=10, P State=0
Time=             4455000, Full Counter=       227, Cycle Count=3, Done=0, NP State=11, P State=0
Time=             4465000, Full Counter=       228, Cycle Count=4, Done=0, NP State=12, P State=0
Time=             4475000, Full Counter=       229, Cycle Count=5, Done=0, NP State= 1, P State=0
Time=             4485000, Full Counter=       230, Cycle Count=6, Done=0, NP State= 2, P State=0
Time=             4495000, Full Counter=       231, Cycle Count=7, Done=0, NP State= 3, P State=0
Time=             4505000, Full Counter=       232, Cycle Count=0, Done=0, NP State= 4, P State=0
Time=             4515000, Full Counter=       233, Cycle Count=1, Done=0, NP State= 5, P State=0
Time=             4525000, Full Counter=       234, Cycle Count=2, Done=0, NP State= 6, P State=0
Time=             4535000, Full Counter=       235, Cycle Count=3, Done=0, NP State= 7, P State=0
Time=             4545000, Full Counter=       236, Cycle Count=4, Done=0, NP State= 8, P State=0
Time=             4555000, Full Counter=       237, Cycle Count=5, Done=0, NP State= 9, P State=0
Time=             4565000, Full Counter=       238, Cycle Count=6, Done=0, NP State=10, P State=0
Time=             4575000, Full Counter=       239, Cycle Count=7, Done=0, NP State=11, P State=0
Time=             4585000, Full Counter=       240, Cycle Count=0, Done=0, NP State=12, P State=0
Non-pipelined implementation completed in        241 cycles at time              4595000
Time=             4595000, Full Counter=       241, Cycle Count=1, Done=1, NP State= 0, P State=0
Non-pipelined cycles (captured):        241 at time              4605000
Running pipelined filter for waveform analysis...
Starting     pipelined filter run at time              4615000
Time=             4615000, Full Counter=       241, Cycle Count=1, Done=0, NP State= 0, P State=0
Time=             4635000, Full Counter=         0, Cycle Count=0, Done=0, NP State= 0, P State=0
Time=             4645000, Full Counter=         1, Cycle Count=1, Done=0, NP State= 0, P State=1
    Pipelined start pulse completed at time              4655000
Time=             4655000, Full Counter=         2, Cycle Count=2, Done=0, NP State= 0, P State=1
Time=             4665000, Full Counter=         3, Cycle Count=3, Done=0, NP State= 0, P State=1
Time=             4675000, Full Counter=         4, Cycle Count=4, Done=0, NP State= 0, P State=1
Time=             4685000, Full Counter=         5, Cycle Count=5, Done=0, NP State= 0, P State=2
Time=             4695000, Full Counter=         6, Cycle Count=6, Done=0, NP State= 0, P State=2
Time=             4705000, Full Counter=         7, Cycle Count=7, Done=0, NP State= 0, P State=2
Time=             4715000, Full Counter=         8, Cycle Count=0, Done=0, NP State= 0, P State=2
Time=             4725000, Full Counter=         9, Cycle Count=1, Done=0, NP State= 0, P State=2
Time=             4735000, Full Counter=        10, Cycle Count=2, Done=0, NP State= 0, P State=2
Time=             4745000, Full Counter=        11, Cycle Count=3, Done=0, NP State= 0, P State=2
Time=             4755000, Full Counter=        12, Cycle Count=4, Done=0, NP State= 0, P State=2
Time=             4765000, Full Counter=        13, Cycle Count=5, Done=0, NP State= 0, P State=2
Time=             4775000, Full Counter=        14, Cycle Count=6, Done=0, NP State= 0, P State=2
Time=             4785000, Full Counter=        15, Cycle Count=7, Done=0, NP State= 0, P State=2
Time=             4795000, Full Counter=        16, Cycle Count=0, Done=0, NP State= 0, P State=2
Time=             4805000, Full Counter=        17, Cycle Count=1, Done=0, NP State= 0, P State=2
Time=             4815000, Full Counter=        18, Cycle Count=2, Done=0, NP State= 0, P State=2
Time=             4825000, Full Counter=        19, Cycle Count=3, Done=0, NP State= 0, P State=2
Time=             4835000, Full Counter=        20, Cycle Count=4, Done=0, NP State= 0, P State=2
Time=             4845000, Full Counter=        21, Cycle Count=5, Done=0, NP State= 0, P State=2
Time=             4855000, Full Counter=        22, Cycle Count=6, Done=0, NP State= 0, P State=3
Time=             4865000, Full Counter=        23, Cycle Count=7, Done=0, NP State= 0, P State=3
Time=             4875000, Full Counter=        24, Cycle Count=0, Done=0, NP State= 0, P State=3
Time=             4885000, Full Counter=        25, Cycle Count=1, Done=0, NP State= 0, P State=4
    Pipelined implementation completed in         26 cycles at time              4895000
Time=             4895000, Full Counter=        26, Cycle Count=2, Done=1, NP State= 0, P State=0
Pipelined cycles (captured):         26 at time              4905000
Speedup: 9.27 x
Pipelined cycles (captured):         26 at time              4915000
Speedup: 9.27 x
Pipelined cycles (captured):         26 at time              4925000
Speedup: 9.27 x
Pipelined cycles (captured):         26 at time              4935000
Speedup: 9.27 x
Pipelined cycles (captured):         26 at time              4945000
Speedup: 9.27 x
Pipelined cycles (captured):         26 at time              4955000
Speedup: 9.27 x
Pipelined cycles (captured):         26 at time              4965000
Speedup: 9.27 x
Pipelined cycles (captured):         26 at time              4975000
Speedup: 9.27 x
Pipelined cycles (captured):         26 at time              4985000
Speedup: 9.27 x
Pipelined cycles (captured):         26 at time              4995000
Speedup: 9.27 x
Pipelined cycles (captured):         26 at time              5005000
Speedup: 9.27 x
Pipelined cycles (captured):         26 at time              5015000
Speedup: 9.27 x
Pipelined cycles (captured):         26 at time              5025000
Speedup: 9.27 x
Pipelined cycles (captured):         26 at time              5035000
Speedup: 9.27 x
Pipelined cycles (captured):         26 at time              5045000
Speedup: 9.27 x
Pipelined cycles (captured):         26 at time              5055000
Speedup: 9.27 x
Pipelined cycles (captured):         26 at time              5065000
Speedup: 9.27 x
Pipelined cycles (captured):         26 at time              5075000
Speedup: 9.27 x
Pipelined cycles (captured):         26 at time              5085000
Speedup: 9.27 x
Pipelined cycles (captured):         26 at time              5095000
Speedup: 9.27 x
Pipelined cycles (captured):         26 at time              5105000
Speedup: 9.27 x
Waveform analysis simulation complete
$finish called at time : 5115 ns : File "/home/tnoble/git/CECS_460_Group_1/project_4/testbench/fir_waveform_tb.v" Line 170
INFO: [USF-XSim-96] XSim completed. Design snapshot 'fir_waveform_tb_behav' loaded.
INFO: [USF-XSim-97] XSim simulation ran for 100000ns
launch_simulation: Time (s): cpu = 00:00:08 ; elapsed = 00:00:07 . Memory (MB): peak = 8383.980 ; gain = 38.012 ; free physical = 3558 ; free virtual = 8685

